TI_WS23-24/ti23_assignment_08/src/dump_alu_nzcv.vcd
$date
	Fri Dec  8 20:29:42 2023
$end
$version
	Icarus Verilog
$end
$timescale
	1s
$end
$scope module alu_nzcv_tb $end
$var wire 32 ! l_result [31:0] $end
$var wire 4 " l_nzcv [3:0] $end
$var reg 32 # l_a [31:0] $end
$var reg 32 $ l_b [31:0] $end
$var reg 2 % l_ctrl [1:0] $end
$scope module m_dut $end
$var wire 32 & i_a [31:0] $end
$var wire 2 ' i_alu_ctrl [1:0] $end
$var wire 32 ( i_b [31:0] $end
$var wire 1 ) l_xorA $end
$var wire 1 * l_xorB_not $end
$var wire 32 + o_result [31:0] $end
$var wire 4 , o_nzcv [3:0] $end
$var wire 1 - l_xorB $end
$var wire 32 . l_alu_result [31:0] $end
$var wire 1 / l_alu_carry_out $end
$scope module alu $end
$var wire 32 0 i_a [31:0] $end
$var wire 2 1 i_alu_ctrl [1:0] $end
$var wire 32 2 i_b [31:0] $end
$var wire 32 3 l_and [31:0] $end
$var wire 32 4 l_not_b [31:0] $end
$var wire 32 5 l_or [31:0] $end
$var wire 32 6 o_result [31:0] $end
$var wire 1 / o_carry_out $end
$var wire 32 7 l_mux_out [31:0] $end
$var wire 32 8 l_adder_out [31:0] $end
$scope module adder $end
$var wire 32 9 i_a [31:0] $end
$var wire 1 : i_carry_in $end
$var wire 32 ; o_s [31:0] $end
$var wire 1 / o_carry_out $end
$var wire 32 < i_b [31:0] $end
$upscope $end
$scope module mux2 $end
$var wire 32 = i_in0 [31:0] $end
$var wire 32 > i_in1 [31:0] $end
$var wire 1 ? i_s $end
$var wire 32 @ o_out [31:0] $end
$upscope $end
$scope module mux4 $end
$var wire 32 A i_in0 [31:0] $end
$var wire 32 B i_in1 [31:0] $end
$var wire 32 C i_in2 [31:0] $end
$var wire 32 D i_in3 [31:0] $end
$var wire 2 E i_s [1:0] $end
$var wire 32 F o_out [31:0] $end
$var wire 32 G l_out1 [31:0] $end
$var wire 32 H l_out0 [31:0] $end
$scope module m0 $end
$var wire 32 I i_in0 [31:0] $end
$var wire 32 J i_in1 [31:0] $end
$var wire 1 K i_s $end
$var wire 32 L o_out [31:0] $end
$upscope $end
$scope module m1 $end
$var wire 32 M i_in0 [31:0] $end
$var wire 32 N i_in1 [31:0] $end
$var wire 1 O i_s $end
$var wire 32 P o_out [31:0] $end
$upscope $end
$scope module m2 $end
$var wire 32 Q i_in0 [31:0] $end
$var wire 32 R i_in1 [31:0] $end
$var wire 1 S i_s $end
$var wire 32 T o_out [31:0] $end
$upscope $end
$upscope $end
$upscope $end
$scope module xor3 $end
$var wire 1 U i_in0 $end
$var wire 1 V i_in1 $end
$var wire 1 W i_in2 $end
$var wire 1 - o_res $end
$upscope $end
$upscope $end
$upscope $end
$enddefinitions $end
#0
$dumpvars
0W
0V
0U
b0 T
0S
b0 R
b0 Q
b0 P
0O
b0 N
b0 M
b0 L
0K
b0 J
b0 I
b0 H
b0 G
b0 F
b0 E
b0 D
b0 C
b0 B
b0 A
b0 @
0?
b11111111111111111111111111111111 >
b0 =
b0 <
b0 ;
0:
b0 9
b0 8
b0 7
b0 6
b0 5
b11111111111111111111111111111111 4
b0 3
b0 2
b0 1
b0 0
0/
b0 .
0-
b10 ,
b0 +
1*
0)
b0 (
b0 '
b0 &
b0 %
b0 $
b0 #
b10 "
b0 !
$end
#10
1)
0*
b1 "
b1 ,
b11111111111111111111111111111111 !
b11111111111111111111111111111111 +
b11111111111111111111111111111111 .
b11111111111111111111111111111111 6
b11111111111111111111111111111111 F
b11111111111111111111111111111111 T
1-
b11111111111111111111111111111111 H
b11111111111111111111111111111111 L
b11111111111111111111111111111111 Q
b11111111111111111111111111111111 8
b11111111111111111111111111111111 ;
b11111111111111111111111111111111 A
b11111111111111111111111111111111 B
b11111111111111111111111111111111 I
b11111111111111111111111111111111 J
1V
b0 4
b0 >
b11111111111111111111111111111111 5
b11111111111111111111111111111111 D
b11111111111111111111111111111111 N
b11111111111111111111111111111111 7
b11111111111111111111111111111111 <
b11111111111111111111111111111111 @
b11111111111111111111111111111111 $
b11111111111111111111111111111111 (
b11111111111111111111111111111111 2
b11111111111111111111111111111111 =
#20
0)
b0 !
b0 +
b0 .
b0 6
b0 F
b0 T
b1 G
b1 P
b1 R
b0 H
b0 L
b0 Q
b110 "
b110 ,
b1 3
b1 C
b1 M
b0 8
b0 ;
b0 A
b0 B
b0 I
b0 J
1/
b1 #
b1 &
b1 0
b1 9
#30
1*
0-
b0 "
b0 ,
b10000000000000000 !
b10000000000000000 +
b10000000000000000 .
b10000000000000000 6
b10000000000000000 F
b10000000000000000 T
0/
b10000000000000000 H
b10000000000000000 L
b10000000000000000 Q
0V
b11111111111111111111111111111110 4
b11111111111111111111111111111110 >
b1 7
b1 <
b1 @
b1111111111111111 5
b1111111111111111 D
b1111111111111111 N
b10000000000000000 8
b10000000000000000 ;
b10000000000000000 A
b10000000000000000 B
b10000000000000000 I
b10000000000000000 J
b1 $
b1 (
b1 2
b1 =
b1111111111111111 #
b1111111111111111 &
b1111111111111111 0
b1111111111111111 9
#40
b110 "
b110 ,
0*
1/
b0 !
b0 +
b0 .
b0 6
b0 F
b0 T
1-
b0 G
b0 P
b0 R
b0 H
b0 L
b0 Q
1W
1?
1:
1K
1O
b11111111111111111111111111111111 4
b11111111111111111111111111111111 >
b11111111111111111111111111111111 7
b11111111111111111111111111111111 <
b11111111111111111111111111111111 @
b0 3
b0 C
b0 M
b0 5
b0 D
b0 N
b0 8
b0 ;
b0 A
b0 B
b0 I
b0 J
b1 %
b1 '
b1 1
b1 E
b0 $
b0 (
b0 2
b0 =
b0 #
b0 &
b0 0
b0 9
#50
b100 "
b100 ,
b1111111111111111 !
b1111111111111111 +
b1111111111111111 .
b1111111111111111 6
b1111111111111111 F
b1111111111111111 T
b11111111111111111111111111111110 7
b11111111111111111111111111111110 <
b11111111111111111111111111111110 @
b10000000000000001 G
b10000000000000001 P
b10000000000000001 R
b1111111111111111 H
b1111111111111111 L
b1111111111111111 Q
b11111111111111111111111111111110 4
b11111111111111111111111111111110 >
b10000000000000001 5
b10000000000000001 D
b10000000000000001 N
b1111111111111111 8
b1111111111111111 ;
b1111111111111111 A
b1111111111111111 B
b1111111111111111 I
b1111111111111111 J
b1 $
b1 (
b1 2
b1 =
b10000000000000000 #
b10000000000000000 &
b10000000000000000 0
b10000000000000000 9
#60
1*
b1 "
b1 ,
0-
b11111111111111111111111111111111 !
b11111111111111111111111111111111 +
b11111111111111111111111111111111 .
b11111111111111111111111111111111 6
b11111111111111111111111111111111 F
b11111111111111111111111111111111 T
b11111111111111111111111111111111 7
b11111111111111111111111111111111 <
b11111111111111111111111111111111 @
0)
b11111111111111111111111111111111 G
b11111111111111111111111111111111 P
b11111111111111111111111111111111 R
b11111111111111111111111111111110 H
b11111111111111111111111111111110 L
b11111111111111111111111111111110 Q
0W
0?
0:
0K
0O
1S
1V
b0 4
b0 >
1U
b11111111111111111111111111111111 3
b11111111111111111111111111111111 C
b11111111111111111111111111111111 M
b11111111111111111111111111111111 5
b11111111111111111111111111111111 D
b11111111111111111111111111111111 N
b11111111111111111111111111111110 8
b11111111111111111111111111111110 ;
b11111111111111111111111111111110 A
b11111111111111111111111111111110 B
b11111111111111111111111111111110 I
b11111111111111111111111111111110 J
b10 %
b10 '
b10 1
b10 E
b11111111111111111111111111111111 $
b11111111111111111111111111111111 (
b11111111111111111111111111111111 2
b11111111111111111111111111111111 =
b11111111111111111111111111111111 #
b11111111111111111111111111111111 &
b11111111111111111111111111111111 0
b11111111111111111111111111111111 9
#70
1)
0*
b0 "
b0 ,
1-
b1110111010000110011010001110111 !
b1110111010000110011010001110111 +
b1110111010000110011010001110111 .
b1110111010000110011010001110111 6
b1110111010000110011010001110111 F
b1110111010000110011010001110111 T
b1110111010000110011010001110110 H
b1110111010000110011010001110110 L
b1110111010000110011010001110110 Q
b1110111010000110011010001110111 G
b1110111010000110011010001110111 P
b1110111010000110011010001110111 R
b1110111010000110011010001110110 8
b1110111010000110011010001110110 ;
b1110111010000110011010001110110 A
b1110111010000110011010001110110 B
b1110111010000110011010001110110 I
b1110111010000110011010001110110 J
0V
b10001000101111001100101110001000 4
b10001000101111001100101110001000 >
b1110111010000110011010001110111 3
b1110111010000110011010001110111 C
b1110111010000110011010001110111 M
b1110111010000110011010001110111 7
b1110111010000110011010001110111 <
b1110111010000110011010001110111 @
b1110111010000110011010001110111 $
b1110111010000110011010001110111 (
b1110111010000110011010001110111 2
b1110111010000110011010001110111 =
#80
b10 "
b10 ,
b0 !
b0 +
b0 .
b0 6
b0 F
b0 T
0)
b0 G
b0 P
b0 R
b11111111111111111111111111111111 H
b11111111111111111111111111111111 L
b11111111111111111111111111111111 Q
1V
b0 4
b0 >
b11111111111111111111111111111111 7
b11111111111111111111111111111111 <
b11111111111111111111111111111111 @
0U
b0 3
b0 C
b0 M
b11111111111111111111111111111111 8
b11111111111111111111111111111111 ;
b11111111111111111111111111111111 A
b11111111111111111111111111111111 B
b11111111111111111111111111111111 I
b11111111111111111111111111111111 J
0/
b11111111111111111111111111111111 $
b11111111111111111111111111111111 (
b11111111111111111111111111111111 2
b11111111111111111111111111111111 =
b0 #
b0 &
b0 0
b0 9
#90
1)
1*
b1 H
b1 L
b1 Q
b1 "
b1 ,
b11111111111111111111111111111111 !
b11111111111111111111111111111111 +
b11111111111111111111111111111111 .
b11111111111111111111111111111111 6
b11111111111111111111111111111111 F
b11111111111111111111111111111111 T
0-
b0 7
b0 <
b0 @
b1 8
b1 ;
b1 A
b1 B
b1 I
b1 J
0/
b11111111111111111111111111111111 G
b11111111111111111111111111111111 P
b11111111111111111111111111111111 R
1W
1?
1:
1K
1O
b11 %
b11 '
b11 1
b11 E
